{
	"code": "berries",
	"name": "Berries",
	"description": "Berries are yummy in your tummy!",
	"order": 10,
	"subtypes": {
		"bush": "Berries"
	},
	"truePrice": 0,

	"food": 4,
	"gatherAnimation": "gather_fruit",

	"aiAnalysisInfluenceGroup": "ignore"
}
