{
	"code": "brocolli",
	"name": "Brocolli",
	"description": "A very small edible tree",
	"order": 10,
	"subtypes": {
		"vegetable": "Brocolli"
	},
	"truePrice": 0,

	"food": 6,
	"gatherAnimation": "gather_grain",
	"cache": 60,
	"recharge": 10,

	"aiAnalysisInfluenceGroup": "ignore"
}
