{
	"code": "cauliflowers",
	"name": "Cauliflowers",
	"description": "Cauliflowers can be eaten raw.",
	"order": 10,
	"subtypes": {
		"vegetable": "Cauliflower"
	},
	"truePrice": 0,

	"food": 6,
	"gatherAnimation": "gather_grain",
	"cache": 60,
	"recharge": 10,

	"aiAnalysisInfluenceGroup": "ignore"
}
