{
	"code": "spears",
	"name": "Spears",
	"description": "A weapon built for warriors.",
	"order": 10,
	"subtypes": {
		"metal": "Metal spears"
	},
	"truePrice": 0,
	"aiAnalysisInfluenceGroup": "ignore"
}
