{
	"code": "swords",
	"name": "Swords",
	"description": "A weapon built for warriors.",
	"order": 10,
	"subtypes": {
		"m": "Metal swords"
	},
	"truePrice": 0,
	"aiAnalysisInfluenceGroup": "ignore"
}
